*
%FSLAX26Y26*%
%MOIN*%
%ADD10C,0.010000*%
%IPPOS*%
%LNoutline*%
%LPD*%
G75*
G54D10*
X0Y0D02*
Y1061811D01*
X9842519D02*
X9842518Y0D01*
X0D01*
X9842519Y1061811D02*
X0D01*
Y2123622D01*
X9842519D02*
X9842518Y1061811D01*
X0D01*
X9842519Y2123622D02*
X0D01*
Y3185433D01*
X9842519D02*
X9842518Y2123622D01*
X0D01*
X9842519Y3185433D02*
X0D01*
Y4247244D01*
X9842519D02*
X9842518Y3185433D01*
X0D01*
X9842519Y4247244D02*
X0D01*
Y5309055D01*
X9842519D02*
X9842518Y4247244D01*
X0D01*
X9842519Y5309055D02*
X0D01*
Y6370866D01*
X9842519D02*
X9842518Y5309055D01*
X0D01*
X9842519Y6370866D02*
X0D01*
Y7432677D01*
X9842519D02*
X9842518Y6370866D01*
X0D01*
X9842519Y7432677D02*
X0D01*
Y8494488D01*
X9842519D02*
X9842518Y7432677D01*
X0D01*
X9842519Y8494488D02*
X0D01*
Y-98425D02*
Y8592913D01*
X98425Y8691339D02*
X9744093D01*
X9842519Y8592913D02*
Y-98425D01*
X9744093Y-196850D02*
X98425D01*
X0Y8592913D02*
X493Y8602753D01*
X1967Y8612494D01*
X4408Y8622039D01*
X7791Y8631292D01*
X12081Y8640160D01*
X17237Y8648555D01*
X23206Y8656393D01*
X29929Y8663595D01*
X37339Y8670088D01*
X45360Y8675808D01*
X53913Y8680698D01*
X62912Y8684708D01*
X72266Y8687799D01*
X81883Y8689938D01*
X91665Y8691106D01*
X98425Y8691339D01*
X0Y-98425D02*
X493Y-108265D01*
X1967Y-118006D01*
X4408Y-127551D01*
X7791Y-136804D01*
X12081Y-145672D01*
X17237Y-154067D01*
X23206Y-161905D01*
X29929Y-169106D01*
X37339Y-175600D01*
X45360Y-181320D01*
X53913Y-186210D01*
X62912Y-190220D01*
X72266Y-193311D01*
X81883Y-195450D01*
X91665Y-196618D01*
X98425Y-196850D01*
X9744093Y8691339D02*
X9753933Y8690845D01*
X9763674Y8689371D01*
X9773219Y8686931D01*
X9782472Y8683548D01*
X9791340Y8679257D01*
X9799735Y8674101D01*
X9807573Y8668132D01*
X9814775Y8661409D01*
X9821268Y8654000D01*
X9826988Y8645979D01*
X9831878Y8637426D01*
X9835888Y8628427D01*
X9838979Y8619072D01*
X9841118Y8609456D01*
X9842286Y8599673D01*
X9842519Y8592913D01*
Y-98425D02*
X9842025Y-108265D01*
X9840551Y-118006D01*
X9838111Y-127551D01*
X9834728Y-136804D01*
X9830437Y-145672D01*
X9825281Y-154067D01*
X9819312Y-161905D01*
X9812589Y-169106D01*
X9805180Y-175600D01*
X9797159Y-181320D01*
X9788606Y-186210D01*
X9779607Y-190220D01*
X9770252Y-193311D01*
X9760636Y-195450D01*
X9750853Y-196618D01*
X9744093Y-196850D01*
M02*
